<svg xmlns="http://www.w3.org/2000/svg" width="34" height="32" viewBox="0 0 34 32">
    <g fill="none" fill-rule="evenodd" stroke="#45B3B0" stroke-linecap="round" stroke-linejoin="round" stroke-width="1.6">
        <path d="M11.844 23.41C8.59 21.557 8.11 19.526 8.11 19.526s.476-1.514.156-1.884c-.32-.37-2.904-1.033-4.742-.517.194-1.052.71-4.014 3.5-7.169 1.153-1.303 2.752-.514 5.176-.716 0 0 3.803-.134 7.455-2.642C23.308 4.091 29.16.492 33.064.821c.285 4.07-3.27 9.756-5.777 13.408-2.508 3.652-2.642 7.455-2.642 7.455-.202 2.424.587 4.023-.716 5.175-3.155 2.791-6.117 3.307-7.17 3.501.525-1.926-.511-5.22-.881-5.54-.37-.32-1.584.951-1.584.951"/>
        <path d="M8.11 19.527s-.997 3.582-4.887 5.676c2.124.329 2.932.359 2.932.359S5.018 28.015.8 29.182c0 0 8.478 1.794 13.494-3.41M21.305 16.981a3.351 3.351 0 0 1-2.378.985 3.363 3.363 0 1 1 2.378-5.742 3.363 3.363 0 0 1 0 4.757z"/>
    </g>
</svg>
